; ModuleID = 'probe0.3729115e802aff52-cgu.0'
source_filename = "probe0.3729115e802aff52-cgu.0"
target datalayout = "e-m:e-i8:8:32-i16:16:32-i64:64-i128:128-n32:64-S128"
target triple = "aarch64-unknown-linux-gnu"

!llvm.module.flags = !{!0}
!llvm.ident = !{!1}

!0 = !{i32 8, !"PIC Level", i32 2}
!1 = !{!"rustc version 1.75.0 (82e1608df 2023-12-21)"}
